…
## What is mean total number of steps taken per day?

We group the data by date so we can then compute the total number of steps taken for each day. A quick call to the data frame shows that we have a 61 X 2 object, one row for each date in the two month period, and it shows the total number of steps recorded for each day.
After that, we plot a histogram showing the frequencies of different numbers of steps taken per day. A bin width of around 400 gives a bell curve shape with sevaral days listed as having zero steps taken.
Finally, we use the mean() and median() functions to get the mean and median number of steps taken per day.

```r
df1 <- group_by(data, date) %>% summarize(steps = sum(steps, na.rm = TRUE))
df1
```

```
## # A tibble: 61 x 2
##          date steps
##        <fctr> <int>
##  1 2012-10-01     0
##  2 2012-10-02   126
##  3 2012-10-03 11352
##  4 2012-10-04 12116
##  5 2012-10-05 13294
##  6 2012-10-06 15420
##  7 2012-10-07 11015
##  8 2012-10-08     0
##  9 2012-10-09 12811
## 10 2012-10-10  9900
## # ... with 51 more rows
```
…
